LCD_Controller/simulation/qsim/LCD_DRIVER.msim.vcd
$comment
	File created using the following command:
		vcd file LCD_DRIVER.msim.vcd -direction
$end
$date
	Fri Oct 18 11:15:57 2013
$end
$version
	ModelSim Version 10.1d
$end
$timescale
	1ps
$end
$scope module LCD_Display_Controller_vlg_vec_tst $end
$var reg 1 ! CLK_50Mhz $end
$var reg 4 " MessageNumber [3:0] $end
$var reg 1 # Reset_L $end
$var reg 1 $ WriteMessage_L $end
$var wire 1 % DB [7] $end
$var wire 1 & DB [6] $end
$var wire 1 ' DB [5] $end
$var wire 1 ( DB [4] $end
$var wire 1 ) DB [3] $end
$var wire 1 * DB [2] $end
$var wire 1 + DB [1] $end
$var wire 1 , DB [0] $end
$var wire 1 - DriverReady $end
$var wire 1 . E $end
$var wire 1 / LCD_BLON_DE2 $end
$var wire 1 0 LCD_ON_DE2 $end
$var wire 1 1 Ready_H $end
$var wire 1 2 RomOut [7] $end
$var wire 1 3 RomOut [6] $end
$var wire 1 4 RomOut [5] $end
$var wire 1 5 RomOut [4] $end
$var wire 1 6 RomOut [3] $end
$var wire 1 7 RomOut [2] $end
$var wire 1 8 RomOut [1] $end
$var wire 1 9 RomOut [0] $end
$var wire 1 : RS $end
$var wire 1 ; RW $end
$var wire 1 < sampler $end
$scope module i1 $end
$var wire 1 = gnd $end
$var wire 1 > vcc $end
$var wire 1 ? unknown $end
$var tri1 1 @ devclrn $end
$var tri1 1 A devpor $end
$var tri1 1 B devoe $end
$var wire 1 C inst|inst|Add0~4_combout $end
$var wire 1 D inst|inst|Add0~26_combout $end
$var wire 1 E inst|inst|Add0~31 $end
$var wire 1 F inst|inst|Add0~32_combout $end
$var wire 1 G inst|inst2|Mux1~0_combout $end
$var wire 1 H inst|inst|Equal0~1_combout $end
$var wire 1 I inst|inst13~regout $end
$var wire 1 J inst|inst|Current_state~2_combout $end
$var wire 1 K inst|inst|Current_state~5_combout $end
$var wire 1 L inst|inst1|Equal6~0_combout $end
$var wire 1 M inst|inst13~0_combout $end
$var wire 1 N CLK_50Mhz~combout $end
$var wire 1 O inst|inst13~clkctrl_outclk $end
$var wire 1 P Reset_L~combout $end
$var wire 1 Q inst|inst|Current_state~4_combout $end
$var wire 1 R inst|inst1|Current_state~12_combout $end
$var wire 1 S inst|inst1|Char_Count[0]~5_combout $end
$var wire 1 T inst|inst|Equal2~1_combout $end
$var wire 1 U inst|inst1|LcdStart~0_combout $end
$var wire 1 V inst|inst2|Mux0~0_combout $end
$var wire 1 W inst|inst2|Mux1~1_combout $end
$var wire 1 X inst|inst2|Mux1~2_combout $end
$var wire 1 Y inst|inst2|Mux5~5_combout $end
$var wire 1 Z inst|inst1|AddressOut[6]~1_combout $end
$var wire 1 [ inst|inst1|Equal0~0_combout $end
$var wire 1 \ inst|inst2|Mux5~7_combout $end
$var wire 1 ] inst|inst2|Mux7~0_combout $end
$var wire 1 ^ inst|inst2|Mux7~1_combout $end
$var wire 1 _ inst|inst1|AddressOut[5]~0_combout $end
$var wire 1 ` inst|inst2|Mux2~1_combout $end
$var wire 1 a inst|inst2|Mux2~2_combout $end
$var wire 1 b inst|inst2|Mux2~0_combout $end
$var wire 1 c inst|inst2|Mux2~3_combout $end
$var wire 1 d inst|inst1|Equal6~1_combout $end
$var wire 1 e inst|inst1|LcdStart~1_combout $end
$var wire 1 f WriteMessage_L~combout $end
$var wire 1 g inst|inst1|Current_state~6_combout $end
$var wire 1 h inst|inst1|Current_state~7_combout $end
$var wire 1 i inst|inst1|Current_state~8_combout $end
$var wire 1 j inst|inst1|CounterReset~0_combout $end
$var wire 1 k inst|inst|Equal2~0_combout $end
$var wire 1 l inst|inst1|Char_Count[4]~11_combout $end
$var wire 1 m inst|inst1|Char_Count[0]~6 $end
$var wire 1 n inst|inst1|Char_Count[1]~7_combout $end
$var wire 1 o inst|inst1|Char_Count[1]~8 $end
$var wire 1 p inst|inst1|Char_Count[2]~9_combout $end
$var wire 1 q inst|inst1|Char_Count[2]~10 $end
$var wire 1 r inst|inst1|Char_Count[3]~12_combout $end
$var wire 1 s inst|inst1|Char_Count[3]~13 $end
$var wire 1 t inst|inst1|Char_Count[4]~14_combout $end
$var wire 1 u inst|inst2|Mux5~10_combout $end
$var wire 1 v inst|inst2|Mux5~6_combout $end
$var wire 1 w inst|inst2|Mux5~11_combout $end
$var wire 1 x inst|inst2|Mux5~3_combout $end
$var wire 1 y inst|inst2|Mux5~0_combout $end
$var wire 1 z inst|inst2|Mux5~1_combout $end
$var wire 1 { inst|inst2|Mux5~2_combout $end
$var wire 1 | inst|inst2|Mux5~4_combout $end
$var wire 1 } inst|inst2|Mux6~1_combout $end
$var wire 1 ~ inst|inst2|Mux6~2_combout $end
$var wire 1 !! inst|inst2|Mux2~4_combout $end
$var wire 1 "! inst|inst2|Mux5~9_combout $end
$var wire 1 #! inst|inst2|Mux6~6_combout $end
$var wire 1 $! inst|inst2|Mux6~4_combout $end
$var wire 1 %! inst|inst2|Mux6~3_combout $end
$var wire 1 &! inst|inst2|Mux6~5_combout $end
$var wire 1 '! inst|inst2|Mux6~7_combout $end
$var wire 1 (! inst|inst1|Equal6~3_combout $end
$var wire 1 )! inst|inst|Current_state~8_combout $end
$var wire 1 *! inst|inst1|Current_state~9_combout $end
$var wire 1 +! inst|inst1|Current_state~10_combout $end
$var wire 1 ,! inst|inst1|Current_state~11_combout $end
$var wire 1 -! inst|inst2|Mux5~8_combout $end
$var wire 1 .! inst|inst1|Next_state[1]~0_combout $end
$var wire 1 /! inst|inst1|Next_state[1]~1_combout $end
$var wire 1 0! inst|inst1|Next_state[1]~2_combout $end
$var wire 1 1! inst|inst1|Current_state~4_combout $end
$var wire 1 2! inst|inst1|Current_state~5_combout $end
$var wire 1 3! inst|inst|Current_state~6_combout $end
$var wire 1 4! inst|inst1|Equal6~2_combout $end
$var wire 1 5! inst|inst|Current_state~7_combout $end
$var wire 1 6! inst|inst|Current_state~0_combout $end
$var wire 1 7! inst|inst|timeLCDClk[0]~0_combout $end
$var wire 1 8! inst|inst|Add0~1_cout $end
$var wire 1 9! inst|inst|Add0~3 $end
$var wire 1 :! inst|inst|Add0~5 $end
$var wire 1 ;! inst|inst|Add0~6_combout $end
$var wire 1 <! inst|inst|Add0~7 $end
$var wire 1 =! inst|inst|Add0~9 $end
$var wire 1 >! inst|inst|Add0~10_combout $end
$var wire 1 ?! inst|inst|Add0~11 $end
$var wire 1 @! inst|inst|Add0~12_combout $end
$var wire 1 A! inst|inst|Add0~13 $end
$var wire 1 B! inst|inst|Add0~14_combout $end
$var wire 1 C! inst|inst|Add0~15 $end
$var wire 1 D! inst|inst|Add0~16_combout $end
$var wire 1 E! inst|inst|Add0~17 $end
$var wire 1 F! inst|inst|Add0~18_combout $end
$var wire 1 G! inst|inst|Add0~19 $end
$var wire 1 H! inst|inst|Add0~21 $end
$var wire 1 I! inst|inst|Add0~23 $end
$var wire 1 J! inst|inst|Add0~24_combout $end
$var wire 1 K! inst|inst|Add0~25 $end
$var wire 1 L! inst|inst|Add0~27 $end
$var wire 1 M! inst|inst|Add0~28_combout $end
$var wire 1 N! inst|inst|Add0~29 $end
$var wire 1 O! inst|inst|Add0~30_combout $end
$var wire 1 P! inst|inst|Equal0~4_combout $end
$var wire 1 Q! inst|inst|Add0~8_combout $end
$var wire 1 R! inst|inst|Add0~2_combout $end
$var wire 1 S! inst|inst|timeLCDClk[1]~1_combout $end
$var wire 1 T! inst|inst|Equal0~0_combout $end
$var wire 1 U! inst|inst|Equal0~2_combout $end
$var wire 1 V! inst|inst|Add0~22_combout $end
$var wire 1 W! inst|inst|Add0~20_combout $end
$var wire 1 X! inst|inst|Equal0~3_combout $end
$var wire 1 Y! inst|inst|Equal0~5_combout $end
$var wire 1 Z! inst|inst|Current_state~1_combout $end
$var wire 1 [! inst|inst|Current_state~3_combout $end
$var wire 1 \! inst|inst|E~0_combout $end
$var wire 1 ]! inst|inst1|DataOrCommand~0_combout $end
$var wire 1 ^! inst|inst1|DataOrCommand~1_combout $end
$var wire 1 _! inst|inst1|Equal0~1_combout $end
$var wire 1 `! inst|inst2|Mux0~1_combout $end
$var wire 1 a! inst|inst2|Mux6~0_combout $end
$var wire 1 b! inst|inst2|Mux3~2_combout $end
$var wire 1 c! inst|inst2|Mux3~3_combout $end
$var wire 1 d! inst|inst2|Mux3~0_combout $end
$var wire 1 e! inst|inst2|Mux3~1_combout $end
$var wire 1 f! inst|inst2|Mux3~4_combout $end
$var wire 1 g! inst|inst2|Mux4~3_combout $end
$var wire 1 h! inst|inst2|Mux4~2_combout $end
$var wire 1 i! inst|inst2|Mux4~0_combout $end
$var wire 1 j! inst|inst2|Mux4~1_combout $end
$var wire 1 k! inst|inst2|Mux4~4_combout $end
$var wire 1 l! inst|inst|timeLCDClk [16] $end
$var wire 1 m! inst|inst|timeLCDClk [15] $end
$var wire 1 n! inst|inst|timeLCDClk [14] $end
$var wire 1 o! inst|inst|timeLCDClk [13] $end
$var wire 1 p! inst|inst|timeLCDClk [12] $end
$var wire 1 q! inst|inst|timeLCDClk [11] $end
$var wire 1 r! inst|inst|timeLCDClk [10] $end
$var wire 1 s! inst|inst|timeLCDClk [9] $end
$var wire 1 t! inst|inst|timeLCDClk [8] $end
$var wire 1 u! inst|inst|timeLCDClk [7] $end
$var wire 1 v! inst|inst|timeLCDClk [6] $end
$var wire 1 w! inst|inst|timeLCDClk [5] $end
$var wire 1 x! inst|inst|timeLCDClk [4] $end
$var wire 1 y! inst|inst|timeLCDClk [3] $end
$var wire 1 z! inst|inst|timeLCDClk [2] $end
$var wire 1 {! inst|inst|timeLCDClk [1] $end
$var wire 1 |! inst|inst|timeLCDClk [0] $end
$var wire 1 }! inst|inst|Current_state [3] $end
$var wire 1 ~! inst|inst|Current_state [2] $end
$var wire 1 !" inst|inst|Current_state [1] $end
$var wire 1 "" inst|inst|Current_state [0] $end
$var wire 1 #" inst|inst1|Current_state [3] $end
$var wire 1 $" inst|inst1|Current_state [2] $end
$var wire 1 %" inst|inst1|Current_state [1] $end
$var wire 1 &" inst|inst1|Current_state [0] $end
$var wire 1 '" inst|inst1|Char_Count [4] $end
$var wire 1 (" inst|inst1|Char_Count [3] $end
$var wire 1 )" inst|inst1|Char_Count [2] $end
$var wire 1 *" inst|inst1|Char_Count [1] $end
$var wire 1 +" inst|inst1|Char_Count [0] $end
$var wire 1 ," MessageNumber~combout [3] $end
$var wire 1 -" MessageNumber~combout [2] $end
$var wire 1 ." MessageNumber~combout [1] $end
$var wire 1 /" MessageNumber~combout [0] $end
$upscope $end
$upscope $end
$enddefinitions $end
#0
$dumpvars
0!
b0 "
0#
1$
x,
x+
x*
x)
x(
x'
x&
x%
x-
x.
1/
10
x1
x9
x8
x7
x6
x5
x4
x3
x2
x:
x;
x<
0=
1>
x?
1@
1A
1B
xC
xD
xE
xF
xG
xH
0I
xJ
xK
xL
1M
0N
xO
0P
xQ
xR
xS
xT
xU
xV
xW
xX
xY
xZ
x[
x\
x]
x^
x_
x`
xa
xb
xc
xd
xe
1f
xg
xh
xi
xj
xk
xl
xm
xn
xo
xp
xq
xr
xs
xt
xu
xv
xw
xx
xy
xz
x{
x|
x}
x~
x!!
0"!
x#!
x$!
x%!
x&!
x'!
x(!
x)!
x*!
x+!
x,!
x-!
x.!
x/!
x0!
x1!
x2!
x3!
x4!
x5!
x6!
x7!
x8!
x9!
x:!
x;!
x<!
x=!
x>!
x?!
x@!
xA!
xB!
xC!
xD!
xE!
xF!
xG!
xH!
xI!
xJ!
xK!
xL!
xM!
xN!
xO!
xP!
xQ!
xR!
xS!
xT!
xU!
xV!
xW!
xX!
xY!
xZ!
x[!
x\!
x]!
x^!
x_!
x`!
xa!
xb!
xc!
xd!
xe!
xf!
xg!
xh!
xi!
xj!
xk!
x|!
x{!
xz!
xy!
xx!
xw!
xv!
xu!
xt!
xs!
xr!
xq!
xp!
xo!
xn!
xm!
xl!
0""
0!"
0~!
0}!
0&"
0%"
0$"
z#"
0+"
0*"
0)"
0("
0'"
0/"
0."
0-"
0,"
$end
#218
0z!
0o!
0l!
0|!
0y!
0w!
0v!
0u!
0t!
0s!
0p!
0n!
0m!
0x!
0{!
0q!
0r!
#397
0#!
#625
0%!
#626
0O
#643
0$!
#694
0Q
#700
0J
#730
1k
#789
0+!
#806
0}
#815
0d!
#816
0x
#818
1z
#889
0U
#907
1V
#909
0y
#912
0`
#931
1T
#946
0b!
#986
0h!
#1008
0v
#1085
03!
#1087
1l
#1088
1j
#1109
0[
#1114
0[!
#1118
1u
#1120
0m
#1121
0q
#1122
1X!
#1134
1o
#1147
1S
#1154
0_!
#1155
0^!
#1162
0^
#1199
06!
#1207
0e!
#1210
0{
#1240
1P!
#1247
0b
#1299
1H
#1347
0~
#1357
0&!
#1365
0T!
#1399
1R
#1412
0w
#1419
08!
#1426
09!
#1436
1\!
#1455
1s
#1489
0a
#1497
1:!
#1530
0n
#1531
0r
#1544
0p
#1548
0c!
#1568
0<!
#1582
0,!
#1621
00!
#1639
1=!
#1710
0?!
#1720
0i!
#1781
1A!
#1826
1)!
#1829
0R!
#1836
0C
#1865
0t
#1887
0U!
#1907
0;!
#1915
0|
#1927
0C!
#1967
0'!
#1978
0Q!
#1998
1E!
#2012
01!
#2022
0c
#2049
0Z!
0>!
#2069
0G!
#2080
0f!
#2115
0j!
#2120
0@!
#2140
1H!
#2191
1g
0B!
#2211
0I!
#2243
1G
#2257
1`!
#2282
1K!
#2291
0Y
#2305
0W
#2324
0-!
#2326
1e
#2337
0D!
#2353
0L!
#2402
02!
#2408
0F!
#2424
1N!
#2467
1\
#2479
0W!
#2484
1a!
#2498
05!
#2508
0k!
#2542
0_
#2550
0V!
#2563
1.!
#2583
0E
#2621
0J!
#2648
1(!
#2692
0D
#2763
0M!
#2825
1S!
#2834
0O!
#2872
1h
#2885
0X
#2895
1Y!
#2922
1!!
#2959
0Z
#2993
0F
#3127
0L
#3163
1]!
#3460
1]
#3675
1d
#3681
1g!
#3817
17!
#3826
04!
#3830
0/!
#3856
1*!
#5226
1:
#5485
0.
#5699
0,
#5964
0K
#6052
1;
#6128
0i
#6238
09
#6292
06
#6343
0'
#6380
1-
#6527
1%
#6537
12
#6602
0(
#6619
0*
#6628
0)
#6703
08
#6765
0+
#6831
04
#7103
05
#7111
07
#7827
03
#8158
0&
#8716
01
#10000
1!
0<
#10999
1N
#12117
1I
#12440
0M
#12743
1O
#20000
0!
1<
#20999
0N
#30000
1!
0<
#30999
1N
#32117
0I
#32440
1M
#32743
0O
#40000
0!
1<
#40999
0N
#50000
1!
0<
#50999
1N
#52117
1I
#52440
0M
#52743
1O
#60000
0!
1<
#60999
0N
#70000
1!
0<
#70999
1N
#72117
0I
#72440
1M
#72743
0O
#80000
0!
1<
#80999
0N
#90000
1!
0<
#90999
1N
#92117
1I
#92440
0M
#92743
1O
#100000
0!
1<
#100999
0N
#110000
1!
0<
#110999
1N
#112117
0I
#112440
1M
#112743
0O
#120000
0!
1<
#120999
0N
#130000
1!
0<
#130999
1N
#132117
1I
#132440
0M
#132743
1O
#140000
0!
1<
#140999
0N
#150000
1!
0<
#150999
1N
#152117
0I
#152440
1M
#152743
0O
#160000
0!
1<
#160999
0N
#170000
1!
0<
#170999
1N
#172117
1I
#172440
0M
#172743
1O
#180000
0!
1<
#180999
0N
#190000
1!
0<
#190999
1N
#192117
0I
#192440
1M
#192743
0O
#200000
0!
1<
#200999
0N
#210000
1!
0<
#210999
1N
#212117
1I
#212440
0M
#212743
1O
#220000
0!
1<
#220999
0N
#230000
1!
0<
#230999
1N
#232117
0I
#232440
1M
#232743
0O
#240000
0!
1<
#240999
0N
#250000
1!
0<
#250999
1N
#252117
1I
#252440
0M
#252743
1O
#260000
0!
1<
#260999
0N
#270000
1!
0<
#270999
1N
#272117
0I
#272440
1M
#272743
0O
#280000
0!
1<
#280999
0N
#290000
1!
0<
#290999
1N
#292117
1I
#292440
0M
#292743
1O
#300000
0!
1<
#300999
0N
#310000
1!
0<
#310999
1N
#312117
0I
#312440
1M
#312743
0O
#320000
0!
1<
#320999
0N
#330000
1!
0<
#330999
1N
#332117
1I
#332440
0M
#332743
1O
#340000
0!
1<
#340999
0N
#350000
1!
0<
#350999
1N
#352117
0I
#352440
1M
#352743
0O
#360000
0!
1<
#360999
0N
#370000
1!
0<
#370999
1N
#372117
1I
#372440
0M
#372743
1O
#380000
0!
1<
#380999
0N
#390000
1!
0<
#390999
1N
#392117
0I
#392440
1M
#392743
0O
#400000
0!
1<
#400999
0N
#410000
1!
0<
#410999
1N
#412117
1I
#412440
0M
#412743
1O
#420000
0!
1<
#420999
0N
#430000
1!
0<
#430999
1N
#432117
0I
#432440
1M
#432743
0O
#440000
0!
1<
#440999
0N
#450000
1!
0<
#450999
1N
#452117
1I
#452440
0M
#452743
1O
#460000
0!
1<
#460999
0N
#470000
1!
0<
#470999
1N
#472117
0I
#472440
1M
#472743
0O
#480000
1#
0!
1<
#480862
1P
#480999
0N
#486826
1K
#486990
1i
#490000
1!
0<
#490999
1N
#492117
1I
#492440
0M
#492743
1O
#494552
1&"
#495372
0.!
#495441
1U
#495487
13!
#495490
0j
#495600
1^!
#495795
0l
#496173
10!
#496564
11!
#496659
15!
#496878
0e
#496954
12!
#497424
0h
#497834
0i
#499671
0:
#500000
0!
1<
#500999
0N
#510000
1!
0<
#510999
1N
#512117
0I
#512440
1M
#512743
0O
#520000
0!
1<
#520999
0N
#530000
1!
0<
#530999
1N
#532117
1I
#532440
0M
#532743
1O
#534538
1""
#534552
0&"
1%"
#534993
0k
#535167
1i
#535345
00!
#535372
1.!
#535441
0U
#535445
0K
#535459
0)!
#535483
1Q
#535487
03!
#535542
02!
#535560
0R
#535661
1[
#535799
1b
#535828
0!!
#536272
1i!
#536315
0\
#536340
05!
#536370
1c
#536454
0g
#536457
0.!
#536474
1f!
#536578
01!
#536587
0g!
#536667
1j!
#536718
0]
#536809
0`!
#536843
1Y
#536878
1e
#536968
12!
#537060
1k!
#537194
0d
#537424
1h
#537592
0i
#537715
0]!
#540000
0!
1<
#540315
0;
#540643
0-
#540691
1'
#540844
16
#540996
1(
#540999
0N
#541079
0%
#541089
02
#541179
14
#541180
1)
#541497
15
#550000
1!
0<
#550999
1N
#552117
0I
#552440
1M
#552743
0O
#560000
0!
1<
#560999
0N
#570000
1!
0<
#570999
1N
#572117
1I
#572440
0M
#572743
1O
#574538
1!"
0""
1|!
1{!
#574861
07!
#575232
0\!
#575238
1J
#575445
1K
#575469
0T
#575555
0J
#575619
0H
#575685
1T!
#575739
18!
#577036
15!
#579281
1.
#580000
0!
1<
#580999
0N
#590000
1!
0<
#590999
1N
#592117
0I
#592440
1M
#592743
0O
#600000
0!
1<
#600999
0N
#610000
1!
0<
#610999
1N
#612117
1I
#612440
0M
#612743
1O
#614538
1""
0|!
#614861
17!
#615445
0K
#615457
16!
#615483
0Q
#615555
1J
#615619
1H
#615739
08!
#615810
19!
#615881
0:!
#615952
1<!
#616023
0=!
#616094
1?!
#616149
1R!
#616165
0A!
#616220
1C
#616253
1[!
#616291
1;!
#616311
1C!
#616317
1U!
#616340
05!
#616362
1Q!
#616382
0E!
#616433
1>!
#616453
1G!
#616504
1@!
#616524
0H!
#616575
1B!
#616595
1I!
#616666
0K!
#616721
1D!
#616737
1L!
#616792
1F!
#616808
0N!
#616863
1W!
#616934
1V!
#616967
1E
#617005
1J!
#617076
1D
#617145
0S!
#617147
1M!
#617218
1O!
#617325
0Y!
#617377
1F
#618247
07!
#620000
0!
1<
#620999
0N
#630000
1!
0<
#630999
1N
#632117
0I
#632440
1M
#632743
0O
#640000
0!
1<
#640999
0N
#650000
1!
0<
#650999
1N
#652117
1I
#652440
0M
#652743
1O
#654538
0!"
0""
1~!
#655232
1\!
#655238
0J
#655445
1K
#655457
06!
#655974
0\!
#656340
15!
#660000
0!
1<
#660999
0N
#670000
1!
0<
#670999
1N
#672117
0I
#672440
1M
#672743
0O
#680000
0!
1<
#680999
0N
#690000
1!
0<
#690999
1N
#692117
1I
#692440
0M
#692743
1O
#694538
1""
#695445
0K
#695483
1Q
#696340
05!
#700000
0!
1<
#700999
0N
#710000
1!
0<
#710999
1N
#712117
0I
#712440
1M
#712743
0O
#720000
0!
1<
#720999
0N
#730000
1!
0<
#730999
1N
#732117
1I
#732440
0M
#732743
1O
#734538
1!"
0""
#735238
1J
#735445
1K
#735555
0J
#736340
15!
#740000
0!
1<
#740999
0N
#750000
1!
0<
#750999
1N
#752117
0I
#752440
1M
#752743
0O
#760000
0!
1<
#760999
0N
#770000
1!
0<
#770999
1N
#772117
1I
#772440
0M
#772743
1O
#774538
1""
#775445
0K
#775457
16!
#775483
0Q
#775555
1J
#776253
0[!
#776307
1Z!
#776340
05!
#780000
0!
1<
#780999
0N
#790000
1!
0<
#790999
1N
#792117
0I
#792440
1M
#792743
0O
#800000
0!
1<
#800999
0N
#810000
1!
0<
#810999
1N
#812117
1I
#812440
0M
#812743
1O
#814538
0!"
0""
1}!
0~!
#815238
0J
#815469
1T
#815481
0Z!
#815529
1\!
#819578
0.
#820000
0!
1<
#820999
0N
#830000
1!
0<
#830999
1N
#832117
0I
#832440
1M
#832743
0O
#840000
0!
1<
#840999
0N
#850000
1!
0<
#850999
1N
#852117
1I
#852440
0M
#852743
1O
#854538
0}!
#855228
1k
#855243
1K
#855468
1R
#855737
06!
#856122
1l
#856224
0{!
#856486
11!
#856689
1g
#856692
1.!
#856876
02!
#857371
0T!
#857432
09!
#857456
0R!
#857503
1:!
#857574
0<!
#857645
1=!
#857716
0?!
#857787
1A!
#857827
1i
#857842
0C
#857893
0U!
#857913
0;!
#857933
0C!
#857984
0Q!
#858004
1E!
#858055
0>!
#858075
0G!
#858126
0@!
#858146
1H!
#858197
0B!
#858217
0I!
#858288
1K!
#858343
0D!
#858359
0L!
#858414
0F!
#858430
1N!
#858452
1S!
#858485
0W!
#858556
0V!
#858589
0E
#858627
0J!
#858698
0D
#858769
0M!
#858840
0O!
#858901
1Y!
#858999
0F
#859823
17!
#860000
0!
1<
#860550
1;
#860878
1-
#860999
0N
#870000
1!
0<
#870999
1N
#872117
0I
#872440
1M
#872743
0O
#874554
1+"
#875178
1b!
#875179
1%!
#875207
1d!
#875314
0V
#875359
1y
#875360
1}
#875361
1`
#875562
1v
#875577
1&!
#875674
1m
#875701
0S
#875907
0b
#875966
1w
#876084
1n
#876187
1'!
#876243
1-!
#876478
0c
#876582
0f!
#876597
0(!
#876783
0.!
#877302
1d
#877430
1]!
#880000
0!
1<
#880538
1*
#880799
0'
#880923
18
#880985
1+
#880999
0N
#881030
17
#881104
0(
#881287
04
#881605
05
#890000
1!
0<
#890999
1N
#892117
1I
#892440
0M
#892743
1O
#894552
1&"
0%"
#894875
12!
#895441
1U
#895459
1)!
#895491
01!
#895508
1!!
#895513
0[
#895730
13!
#895795
0l
#895881
02!
#896124
0i!
#896167
1\
#896173
10!
#896396
1a
#896436
1e!
#896473
0%!
#896519
0j!
#896564
11!
#896570
1]
#896676
0w
#896695
0Y
#896854
1f!
#896871
0&!
#896878
0e
#896902
15!
#896912
0k!
#896929
1c
#896954
12!
#897154
1^
#897229
0-!
#897424
0h
#897481
0'!
#897753
0d
#897834
0i
#897881
0]!
#897886
1(!
#900000
0!
1<
#900696
06
#900999
0N
#901032
0)
#901250
1'
#901376
1(
#901524
0*
#901691
1,
#901738
14
#901877
15
#902016
07
#902217
08
#902230
19
#902279
0+
#910000
1!
0<
#910999
1N
#912117
0I
#912440
1M
#912743
0O
#920000
0!
1<
#920999
0N
#930000
1!
0<
#930999
1N
#932117
1I
#932440
0M
#932743
1O
#934538
1""
#934552
0&"
1%"
#934993
0k
#935167
1i
#935345
00!
#935372
1.!
#935441
0U
#935445
0K
#935459
0)!
#935483
1Q
#935487
03!
#935542
02!
#935560
0R
#935661
1[
#935828
0!!
#936272
1i!
#936315
0\
#936340
05!
#936454
0g
#936457
0.!
#936544
0a
#936578
01!
#936621
1%!
#936667
1j!
#936718
0]
#936756
0e!
#936824
1w
#936843
1Y
#936878
1e
#936968
12!
#937019
1&!
#937060
1k!
#937077
0c
#937174
0f!
#937302
0^
#937377
1-!
#937424
1h
#937455
0(!
#937592
0i
#937629
1'!
#938029
1]!
#938045
1d
#940000
0!
1<
#940315
0;
#940643
0-
#940844
16
#940999
0N
#941180
1)
#941398
0'
#941672
1*
#941696
0(
#941839
0,
#941886
04
#942164
17
#942197
05
#942365
18
#942378
09
#942427
1+
#950000
1!
0<
#950999
1N
#952117
0I
#952440
1M
#952743
0O
#960000
0!
1<
#960999
0N
#970000
1!
0<
#970999
1N
#972117
1I
#972440
0M
#972743
1O
#974538
1!"
0""
1|!
1{!
#974861
07!
#975232
0\!
#975238
1J
#975445
1K
#975469
0T
#975555
0J
#975619
0H
#975685
1T!
#975739
18!
#977036
15!
#979281
1.
#980000
0!
1<
#980999
0N
#990000
1!
0<
#990999
1N
#992117
0I
#992440
1M
#992743
0O
#1000000
0!
1<
#1000999
0N
#1010000
1!
0<
#1010999
1N
#1012117
1I
#1012440
0M
#1012743
1O
#1014538
1""
0|!
#1014861
17!
#1015445
0K
#1015457
16!
#1015483
0Q
#1015555
1J
#1015619
1H
#1015739
08!
#1015810
19!
#1015881
0:!
#1015952
1<!
#1016023
0=!
#1016094
1?!
#1016149
1R!
#1016165
0A!
#1016220
1C
#1016253
1[!
#1016291
1;!
#1016311
1C!
#1016317
1U!
#1016340
05!
#1016362
1Q!
#1016382
0E!
#1016433
1>!
#1016453
1G!
#1016504
1@!
#1016524
0H!
#1016575
1B!
#1016595
1I!
#1016666
0K!
#1016721
1D!
#1016737
1L!
#1016792
1F!
#1016808
0N!
#1016863
1W!
#1016934
1V!
#1016967
1E
#1017005
1J!
#1017076
1D
#1017145
0S!
#1017147
1M!
#1017218
1O!
#1017325
0Y!
#1017377
1F
#1018247
07!
#1020000
0!
1<
#1020999
0N
#1030000
1!
0<
#1030999
1N
#1032117
0I
#1032440
1M
#1032743
0O
#1040000
0!
1<
#1040999
0N
#1050000
1!
0<
#1050999
1N
#1052117
1I
#1052440
0M
#1052743
1O
#1054538
0!"
0""
1~!
#1055232
1\!
#1055238
0J
#1055445
1K
#1055457
06!
#1055974
0\!
#1056340
15!
#1060000
0!
1<
#1060999
0N
#1070000
1!
0<
#1070999
1N
#1072117
0I
#1072440
1M
#1072743
0O
#1080000
0!
1<
#1080999
0N
#1090000
1!
0<
#1090999
1N
#1092117
1I
#1092440
0M
#1092743
1O
#1094538
1""
#1095445
0K
#1095483
1Q
#1096340
05!
#1100000
0!
1<
#1100999
0N
#1110000
1!
0<
#1110999
1N
#1112117
0I
#1112440
1M
#1112743
0O
#1120000
0!
1<
#1120999
0N
#1130000
1!
0<
#1130999
1N
#1132117
1I
#1132440
0M
#1132743
1O
#1134538
1!"
0""
#1135238
1J
#1135445
1K
#1135555
0J
#1136340
15!
#1140000
0!
1<
#1140999
0N
#1150000
1!
0<
#1150999
1N
#1152117
0I
#1152440
1M
#1152743
0O
#1160000
0!
1<
#1160999
0N
#1170000
1!
0<
#1170999
1N
#1172117
1I
#1172440
0M
#1172743
1O
#1174538
1""
#1175445
0K
#1175457
16!
#1175483
0Q
#1175555
1J
#1176253
0[!
#1176307
1Z!
#1176340
05!
#1180000
0!
1<
#1180999
0N
#1190000
1!
0<
#1190999
1N
#1192117
0I
#1192440
1M
#1192743
0O
#1200000
0!
1<
#1200999
0N
#1210000
1!
0<
#1210999
1N
#1212117
1I
#1212440
0M
#1212743
1O
#1214538
0!"
0""
1}!
0~!
#1215238
0J
#1215469
1T
#1215481
0Z!
#1215529
1\!
#1219578
0.
#1220000
0!
1<
#1220999
0N
#1230000
1!
0<
#1230999
1N
#1232117
0I
#1232440
1M
#1232743
0O
#1240000
0!
1<
#1240999
0N
#1250000
1!
0<
#1250999
1N
#1252117
1I
#1252440
0M
#1252743
1O
#1254538
0}!
#1255228
1k
#1255243
1K
#1255468
1R
#1255737
06!
#1256122
1l
#1256224
0{!
#1256486
11!
#1256689
1g
#1256876
02!
#1257371
0T!
#1257432
09!
#1257456
0R!
#1257503
1:!
#1257574
0<!
#1257645
1=!
#1257716
0?!
#1257787
1A!
#1257827
1i
#1257842
0C
#1257893
0U!
#1257913
0;!
#1257933
0C!
#1257984
0Q!
#1258004
1E!
#1258055
0>!
#1258075
0G!
#1258126
0@!
#1258146
1H!
#1258197
0B!
#1258217
0I!
#1258288
1K!
#1258343
0D!
#1258359
0L!
#1258414
0F!
#1258430
1N!
#1258452
1S!
#1258485
0W!
#1258556
0V!
#1258589
0E
#1258627
0J!
#1258698
0D
#1258769
0M!
#1258840
0O!
#1258901
1Y!
#1258999
0F
#1259823
17!
#1260000
0!
1<
#1260550
1;
#1260878
1-
#1260999
0N
#1270000
1!
0<
#1270999
1N
#1272117
0I
#1272440
1M
#1272743
0O
#1274554
1*"
0+"
#1274877
1"!
#1275179
0%!
#1275207
0v
#1275360
0}
#1275461
0&!
#1275545
0j!
#1275611
0w
#1275674
0m
#1275701
1S
#1275716
1^
#1275888
0-!
#1275938
0k!
#1276071
0'!
#1276459
0d
#1276476
1(!
#1276667
1.!
#1276771
1L
#1279722
06
#1280000
0!
1<
#1280058
0)
#1280183
0*
#1280253
1,
#1280675
07
#1280792
19
#1280807
08
#1280869
0+
#1280999
0N
#1290000
1!
0<
#1290999
1N
#1292117
1I
#1292440
0M
#1292743
1O
#1294552
1&"
0%"
#1294875
12!
#1295372
0.!
#1295441
1U
#1295459
1)!
#1295491
01!
#1295508
1!!
#1295513
0[
#1295730
13!
#1295795
0l
#1295881
02!
#1296124
0i!
#1296167
1\
#1296173
10!
#1296267
1g!
#1296396
1a
#1296436
1e!
